PCBNEW-LibModule-V1  
# encoding utf-8
Units mm
$INDEX
XCVR_ESP8266-01/ESP-01
$EndINDEX
$MODULE XCVR_ESP8266-01/ESP-01
Po 0 0 0 15 00000000 00000000 ~~
Li XCVR_ESP8266-01/ESP-01
Cd 
Sc 00000000
At STD
Op 0 0 0
.SolderMask 0
.SolderPaste 0
T0 -1.16053 -8.28883 1.00046 1.00046 0 0.05 N V 21 "XCVR_ESP8266-01/ESP-01"
T1 -0.77599 8.37556 1.00126 1.00126 0 0.05 N V 21 "VAL**"
DS -3.81 -7.15 21 -7.15 0.2 21
DS 21 -7.15 21 7.15 0.2 21
DS 21 7.15 -3.81 7.15 0.2 21
DS -3.81 7.15 -3.81 -7.15 0.2 21
DS -4.05 -7.4 21.25 -7.4 0.05 26
DS 21.25 -7.4 21.25 7.4 0.05 26
DS 21.25 7.4 -4.05 7.4 0.05 26
DS -4.05 7.4 -4.05 -7.4 0.05 26
DC 1.75 3.8 2 3.8 0.2 21
$PAD
Sh "1" R 1.575 1.575 0 0 0
Dr 1.05 0 0
At STD N 00C0FFFF
.SolderMask 0
Ne 0 ""
Po 0 3.81
$EndPAD
$PAD
Sh "2" C 1.575 1.575 0 0 0
Dr 1.05 0 0
At STD N 00C0FFFF
.SolderMask 0
Ne 0 ""
Po 0 1.27
$EndPAD
$PAD
Sh "3" C 1.575 1.575 0 0 0
Dr 1.05 0 0
At STD N 00C0FFFF
.SolderMask 0
Ne 0 ""
Po 0 -1.27
$EndPAD
$PAD
Sh "4" R 1.575 1.575 0 0 0
Dr 1.05 0 0
At STD N 00C0FFFF
.SolderMask 0
Ne 0 ""
Po 0 -3.81
$EndPAD
$PAD
Sh "5" C 1.575 1.575 0 0 0
Dr 1.05 0 0
At STD N 00C0FFFF
.SolderMask 0
Ne 0 ""
Po -2.54 -3.81
$EndPAD
$PAD
Sh "6" C 1.575 1.575 0 0 0
Dr 1.05 0 0
At STD N 00C0FFFF
.SolderMask 0
Ne 0 ""
Po -2.54 -1.27
$EndPAD
$PAD
Sh "7" C 1.575 1.575 0 0 0
Dr 1.05 0 0
At STD N 00C0FFFF
.SolderMask 0
Ne 0 ""
Po -2.54 1.27
$EndPAD
$PAD
Sh "8" C 1.575 1.575 0 0 0
Dr 1.05 0 0
At STD N 00C0FFFF
.SolderMask 0
Ne 0 ""
Po -2.54 3.81
$EndPAD
$EndMODULE XCVR_ESP8266-01/ESP-01
